Tarea 3: preprocesamiento
…
Dado que se crearon 16 variables dummy asociadas a los nombres de las zonas por ser una variable categórica, al establecer su interacción con area_hab_m2 tenemos que crear una variable asociada a cada variable dummy, por lo que columnas dummy de nombre_zona donde hay 0’s deberían tener asociado un valor de 0 en su interacción con area_hab_m2, y aquellas donde tienen un valor de 1’s, el valor en su interacción debe ser del área habitable.

Pregunta 5: Ajusta un modelo y cuenta el número de coeficientes. La razón del preprocesamiento es mejorar el desempeño predictivo del modelo. ¿Por qué un modelo más complejo y con más coeficientes puede dar mejores resultados que uno más simple sin interacciones, por ejemplo? ¿Es por reducción de sesgo o de varianza?

flujo_casas <- workflow() |> 
  add_recipe(receta_casas) |> 
  add_model(linear_reg() |> set_engine("lm"))
ajuste <- fit(flujo_casas, casas_entrena)

ajuste |> tidy() |> 
  mutate(across(where(is.numeric), round, 2)) |> 
  select(term, estimate) 

# A tibble: 62 × 2
   term                estimate
   <chr>                  <dbl>
 1 (Intercept)          -859.  
 2 area_hab_m2             0.8 
 3 area_garage_m2          1.02
 4 area_sotano_m2          0.88
 5 area_lote_m2            0.01
 6 año_construccion        0.39
 7 num_coches              2.11
 8 nombre_zona_CollgCr    16.7 
 9 nombre_zona_Crawfor    37.1 
10 nombre_zona_Edwards    28.8 
# … with 52 more rows
# ℹ Use `print(n = ...)` to see more rows

Tenemos 62 coeficientes, 61 asociados a variables independientes y 1 asociado al intercepto. La razón por la que un modelo más complejo con más coeficientes puede dar un mejor resultado es que se consideran todos los datos y las relaciones que existen entre ellos, por lo que se puede explotar la distribución de los mismos para reducir tanto el sesgo como la varianza.

Finalmente, puedes hacer predicciones con este modelo como sigue:

predict(ajuste, casas_entrena)

# A tibble: 1,095 × 1
   .pred
   <dbl>
 1 138. 
 2 253. 
 3 104. 
 4 136. 
 5 108. 
 6 121. 
 7 115. 
 8 244. 
 9  16.1
10 116. 
# … with 1,085 more rows
# ℹ Use `print(n = ...)` to see more rows
…
new_flujo_casas <- workflow() |> 
  add_recipe(new_receta_casas) |> 
  add_model(linear_reg() |> set_engine("lm"))
ajuste <- fit(new_flujo_casas, casas_entrena)

predict(ajuste, casas_entrena)

Warning in predict.lm(object = object$fit, newdata = new_data, type =
"response"): prediction from a rank-deficient fit may be misleading

# A tibble: 1,095 × 1
   .pred
   <dbl>
 1 138. 
 2 253. 
 3 104. 
 4 136. 
 5 108. 
 6 121. 
 7 115. 
 8 244. 
 9  16.1
10 116. 
# … with 1,085 more rows
# ℹ Use `print(n = ...)` to see more rows
…
