Regularización L1 y L2
…
Los términos seleccionados (el vocabulario) están aquí (una muestra)

receta_prep$term_info |> sample_n(30)

# A tibble: 30 × 4
   variable          type    role      source 
   <chr>             <chr>   <chr>     <chr>  
 1 tf_texto_guilt    numeric predictor derived
 2 tf_texto_robert   numeric predictor derived
 3 tf_texto_harold   numeric predictor derived
 4 tf_texto_hence    numeric predictor derived
 5 tf_texto_troubled numeric predictor derived
 6 tf_texto_blast    numeric predictor derived
 7 tf_texto_manic    numeric predictor derived
 8 tf_texto_myers    numeric predictor derived
 9 tf_texto_owes     numeric predictor derived
10 tf_texto_paltrow  numeric predictor derived
# … with 20 more rows
…
    expand, pack, unpack

Loaded glmnet 4.1-4

coefs_alta <- flujo_textos_alta |> tidy()
coefs_2mod <- bind_rows(coefs_baja, coefs_alta) |> 
  mutate(tipo = ifelse(penalty < 0.0001, "coef_reg_baja", "coef_reg_alta")) |> 
  select(term, tipo, estimate) |> 
  pivot_wider(names_from = tipo, values_from = estimate)

Por ejemplo, contrasta los siguientes dos:

coefs_2mod |>  mutate(coef_reg_baja = abs(coef_reg_baja)) |> arrange(desc(coef_reg_baja)) |> select(term, coef_reg_baja)

# A tibble: 6,001 × 2
   term                   coef_reg_baja
   <chr>                          <dbl>
 1 (Intercept)                    0.392
 2 tf_texto_sethe                 0.321
 3 tf_texto_deputy                0.291
 4 tf_texto_apollo                0.283
 5 tf_texto_bilko                 0.260
 6 tf_texto_friend's              0.252
 7 tf_texto_mario                 0.246
 8 tf_texto_bowfinger             0.224
 9 tf_texto_traveling             0.224
10 tf_texto_embarrassment         0.218
# … with 5,991 more rows

coefs_2mod |> mutate(coef_reg_alta = abs(coef_reg_alta)) |>  arrange(desc(coef_reg_alta)) |> select(term, coef_reg_alta)

# A tibble: 6,001 × 2
   term                 coef_reg_alta
   <chr>                        <dbl>
 1 (Intercept)                 0.477 
 2 tf_texto_bad                0.113 
 3 tf_texto_wonderfully        0.112 
 4 tf_texto_worst              0.109 
 5 tf_texto_mess               0.104 
 6 tf_texto_awful              0.101 
 7 tf_texto_refreshing         0.101 
 8 tf_texto_waste              0.0948
 9 tf_texto_wasted             0.0932
10 tf_texto_boring             0.0908
# … with 5,991 more rows
…
El modelo con max_tokens igual a 100 carece tanto de sesgo como de varianza. Al aumentar la regularización hasta un valor óptimo, el error disminuye ligeramente, sin embargo no disminuye lo suficiente como para considerarlo como un buen predictor. La diferencia entre el error con poca regularización y con mucha regularización es muy poca, entonces podemos decir que carece de ambas.

Seleccionaremos nuestro modelo final tomando el que dio el mejor valor de el error:

minimo_mae <- evaluar_lasso |> 
  select_best("rmse")

# finalizar modelo con hiperparámetros seleccionados
modelo_final <- finalize_workflow(office_wf, minimo_mae) |> fit(textos_ent)
# tabla de coeficientes
modelo_final |> tidy() |> 
  filter(estimate != 0) |> 
  arrange(desc(abs(estimate)))

# A tibble: 594 × 3
   term                   estimate penalty
   <chr>                     <dbl>   <dbl>
 1 (Intercept)               0.460  0.0251
 2 tf_texto_unimaginative   -0.213  0.0251
 3 tf_texto_degenerates     -0.213  0.0251
 4 tf_texto_lang             0.184  0.0251
 5 tf_texto_uncut            0.152  0.0251
 6 tf_texto_vikings         -0.134  0.0251
 7 tf_texto_sloppy          -0.127  0.0251
 8 tf_texto_mess            -0.123  0.0251
 9 tf_texto_jeopardy        -0.121  0.0251
10 tf_texto_fictional        0.121  0.0251
# … with 584 more rows
…
