Tarea 2: descomposiciones del error de predicción
…
resumen_tbl |> filter(x_1 == 0.25) |> round(3)

# A tibble: 1 × 7
    x_1 pred_media     y error_cuad sesgo2 varianza sigma2
  <dbl>      <dbl> <dbl>      <dbl>  <dbl>    <dbl>  <dbl>
1  0.25      0.386 0.368      0.017      0    0.017      0

Pregunta 7 (opcional) Verifica que en todos los casos el error cuadrático es igual al sesgo2 más la varianza más sigma2.

resumen_tbl <- resumen_tbl |> mutate(error_cuad_hat = sesgo2 + varianza)
resumen_tbl

# A tibble: 201 × 8
     x_1 pred_media           y  error_cuad        sesgo2 varia…¹ sigma2 error…²
   <dbl>      <dbl>       <dbl>       <dbl>         <dbl>   <dbl>  <dbl>   <dbl>
 1 -1     0.0000459 0.000000113 0.000000453 0.00000000210 4.52e-7      0 4.54e-7
 2 -0.99  0.0000459 0.000000155 0.000000453 0.00000000209 4.52e-7      0 4.54e-7
 3 -0.98  0.0000459 0.000000212 0.000000453 0.00000000209 4.52e-7      0 4.54e-7
 4 -0.97  0.0000459 0.000000290 0.000000453 0.00000000208 4.52e-7      0 4.54e-7
 5 -0.96  0.0000460 0.000000395 0.000000453 0.00000000208 4.52e-7      0 4.54e-7
 6 -0.95  0.0000460 0.000000536 0.000000453 0.00000000207 4.52e-7      0 4.54e-7
 7 -0.94  0.0000461 0.000000725 0.000000453 0.00000000206 4.52e-7      0 4.54e-7
 8 -0.93  0.0000463 0.000000977 0.000000453 0.00000000206 4.52e-7      0 4.54e-7
 9 -0.92  0.0000466 0.00000131  0.000000453 0.00000000205 4.52e-7      0 4.54e-7
10 -0.91  0.0000471 0.00000176  0.000000453 0.00000000205 4.52e-7      0 4.54e-7
# … with 191 more rows, and abbreviated variable names ¹​varianza,
#   ²​error_cuad_hat
# ℹ Use `print(n = ...)` to see more rows

resumen_tbl |> 
  mutate(diff_error = abs(error_cuad_hat - error_cuad)) |> 
  select(x_1, error_cuad, error_cuad_hat, diff_error) |> arrange(desc(diff_error))

# A tibble: 201 × 4
      x_1 error_cuad error_cuad_hat diff_error
    <dbl>      <dbl>          <dbl>      <dbl>
 1  0.16      0.0200         0.0201  0.0000400
 2  0.17      0.0199         0.0200  0.0000397
 3  0.150     0.0198         0.0199  0.0000396
 4  0.18      0.0195         0.0195  0.0000389
 5  0.19      0.0193         0.0193  0.0000387
 6  0.2       0.0194         0.0194  0.0000386
 7  0.22      0.0195         0.0195  0.0000385
 8  0.21      0.0192         0.0193  0.0000384
 9 -0.18      0.0188         0.0189  0.0000377
10  0.23      0.0187         0.0188  0.0000371
# … with 191 more rows
# ℹ Use `print(n = ...)` to see more rows
